%YAML 1.1
%TAG !u! tag:unity3d.com,2011:
--- !u!74 &7400000
AnimationClip:
  m_ObjectHideFlags: 0
  m_CorrespondingSourceObject: {fileID: 0}
  m_PrefabInstance: {fileID: 0}
  m_PrefabAsset: {fileID: 0}
  m_Name: Idle
  serializedVersion: 6
  m_Legacy: 0
  m_Compressed: 0
  m_UseHighQualityCurve: 1
  m_RotationCurves:
  - curve:
      serializedVersion: 2
      m_Curve:
      - serializedVersion: 3
        time: 0.75
        value: {x: -0.00010200391, y: 0.000000055706057, z: 0.006781578, w: 0.999977}
        inSlope: {x: -0.0014425778, y: -0.0003060794, z: 0.14627057, w: -0.0014376633}
        outSlope: {x: -0.0014425778, y: -0.0003060794, z: 0.14627057, w: -0.0014376633}
        tangentMode: 0
        weightedMode: 0
        inWeight: {x: 0.33333334, y: 0.33333334, z: 0.33333334, w: 0.33333334}
        outWeight: {x: 0.33333334, y: 0.33333334, z: 0.33333334, w: 0.33333334}
      - serializedVersion: 3
        time: 0.9166667
        value: {x: -0.000760565, y: -0.00013971739, z: 0.07356361, w: 0.99729025}
        inSlope: {x: -0.0053122933, y: -0.0011278617, z: 0.5387609, w: -0.039218884}
        outSlope: {x: -0.0053122933, y: -0.0011278617, z: 0.5387609, w: -0.039218884}
        tangentMode: 0
        weightedMode: 0
        inWeight: {x: 0.33333334, y: 0.33333334, z: 0.33333334, w: 0.33333334}
        outWeight: {x: 0.33333334, y: 0.33333334, z: 0.33333334, w: 0.33333334}
      - serializedVersion: 3
        time: 1.0833334
        value: {x: -0.0011398776, y: -0.0002202669, z: 0.112035416, w: 0.99370354}
        inSlope: {x: 0.0020230538, y: 0.00042968994, z: -0.20519984, w: 0.022333166}
        outSlope: {x: 0.0020230538, y: 0.00042968994, z: -0.20519984, w: 0.022333166}
        tangentMode: 0
        weightedMode: 0
        inWeight: {x: 0.33333334, y: 0.33333334, z: 0.33333334, w: 0.33333334}
        outWeight: {x: 0.33333334, y: 0.33333334, z: 0.33333334, w: 0.33333334}
      - serializedVersion: 3
        time: 1.375
        value: {x: -0.00010200391, y: 0.000000055706057, z: 0.006781578, w: 0.999977}
        inSlope: {x: -1.1641532e-10, y: -0.0000000010040822, z: 0.00000016018748, w: 0.0000000014551915}
        outSlope: {x: -1.1641532e-10, y: -0.0000000010040822, z: 0.00000016018748, w: 0.0000000014551915}
        tangentMode: 0
        weightedMode: 0
        inWeight: {x: 0.33333334, y: 0.33333334, z: 0.33333334, w: 0.33333334}
        outWeight: {x: 0.33333334, y: 0.33333334, z: 0.33333334, w: 0.33333334}
      - serializedVersion: 3
        time: 1.6666667
        value: {x: -0.0011398778, y: -0.00022026694, z: 0.11203543, w: 0.99370354}
        inSlope: {x: -0.002023051, y: -0.00042968662, z: 0.20519939, w: -0.02233312}
        outSlope: {x: -0.002023051, y: -0.00042968662, z: 0.20519939, w: -0.02233312}
        tangentMode: 0
        weightedMode: 0
        inWeight: {x: 0.33333334, y: 0.33333334, z: 0.33333334, w: 0.33333334}
        outWeight: {x: 0.33333334, y: 0.33333334, z: 0.33333334, w: 0.33333334}
      - serializedVersion: 3
        time: 1.875
        value: {x: -0.00052948715, y: -0.00009066289, z: 0.05012911, w: 0.9987426}
        inSlope: {x: 0.0053198, y: 0.0011292044, z: -0.5394801, w: 0.027605291}
        outSlope: {x: 0.0053198, y: 0.0011292044, z: -0.5394801, w: 0.027605291}
        tangentMode: 0
        weightedMode: 0
        inWeight: {x: 0.33333334, y: 0.33333334, z: 0.33333334, w: 0.33333334}
        outWeight: {x: 0.33333334, y: 0.33333334, z: 0.33333334, w: 0.33333334}
      - serializedVersion: 3
        time: 2
        value: {x: -0.00010200391, y: 0.000000055706057, z: 0.006781578, w: 0.999977}
        inSlope: {x: 0.0014425777, y: 0.00030607794, z: -0.14627036, w: 0.0014376654}
        outSlope: {x: 0.0014425777, y: 0.00030607794, z: -0.14627036, w: 0.0014376654}
        tangentMode: 0
        weightedMode: 0
        inWeight: {x: 0.33333334, y: 0.33333334, z: 0.33333334, w: 0.33333334}
        outWeight: {x: 0.33333334, y: 0.33333334, z: 0.33333334, w: 0.33333334}
      m_PreInfinity: 2
      m_PostInfinity: 2
      m_RotationOrder: 4
    path: Armature.splash/Bone/Bone.001/Bone.002/Bone.003
  - curve:
      serializedVersion: 2
      m_Curve:
      - serializedVersion: 3
        time: 0.75
        value: {x: -0.00056547485, y: 0.00000010147186, z: 0.037594847, w: 0.9992929}
        inSlope: {x: -0.0032156555, y: 0.0000000051273306, z: 0.2137876, w: -0.008999343}
        outSlope: {x: -0.0032156555, y: 0.0000000051273306, z: 0.2137876, w: -0.008999343}
        tangentMode: 0
        weightedMode: 0
        inWeight: {x: 0.33333334, y: 0.33333334, z: 0.33333334, w: 0.33333334}
        outWeight: {x: 0.33333334, y: 0.33333334, z: 0.33333334, w: 0.33333334}
      - serializedVersion: 3
        time: 0.875
        value: {x: -0.0015188187, y: 0.00000010074659, z: 0.10097624, w: 0.9948877}
        inSlope: {x: -0.01185496, y: -0.000000015010832, z: 0.7881557, w: -0.08115364}
        outSlope: {x: -0.01185496, y: -0.000000015010832, z: 0.7881557, w: -0.08115364}
        tangentMode: 0
        weightedMode: 0
        inWeight: {x: 0.33333334, y: 0.33333334, z: 0.33333334, w: 0.33333334}
        outWeight: {x: 0.33333334, y: 0.33333334, z: 0.33333334, w: 0.33333334}
      - serializedVersion: 3
        time: 1.0416667
        value: {x: -0.0029756618, y: 0.00000012415346, z: 0.19783185, w: 0.98023146}
        inSlope: {x: -0.00035457266, y: 0.00000029769785, z: 0.023572586, w: -0.004564708}
        outSlope: {x: -0.00035457266, y: 0.00000029769785, z: 0.023572586, w: -0.004564708}
        tangentMode: 0
        weightedMode: 0
        inWeight: {x: 0.33333334, y: 0.33333334, z: 0.33333334, w: 0.33333334}
        outWeight: {x: 0.33333334, y: 0.33333334, z: 0.33333334, w: 0.33333334}
      - serializedVersion: 3
        time: 1.25
        value: {x: -0.0013318305, y: 0.00000012682519, z: 0.088544585, w: 0.99607134}
        inSlope: {x: 0.009992061, y: 0.0000000032218441, z: -0.66430485, w: 0.06034969}
        outSlope: {x: 0.009992061, y: 0.0000000032218441, z: -0.66430485, w: 0.06034969}
        tangentMode: 0
        weightedMode: 0
        inWeight: {x: 0.33333334, y: 0.33333334, z: 0.33333334, w: 0.33333334}
        outWeight: {x: 0.33333334, y: 0.33333334, z: 0.33333334, w: 0.33333334}
      - serializedVersion: 3
        time: 1.4166667
        value: {x: -0.00066939654, y: 0.00000010075156, z: 0.04450394, w: 0.999009}
        inSlope: {x: -0.004538565, y: -0.000000006012451, z: 0.30173874, w: -0.0151612805}
        outSlope: {x: -0.004538565, y: -0.000000006012451, z: 0.30173874, w: -0.0151612805}
        tangentMode: 0
        weightedMode: 0
        inWeight: {x: 0.33333334, y: 0.33333334, z: 0.33333334, w: 0.33333334}
        outWeight: {x: 0.33333334, y: 0.33333334, z: 0.33333334, w: 0.33333334}
      - serializedVersion: 3
        time: 1.625
        value: {x: -0.0026035437, y: 0.00000009919316, z: 0.17309228, w: 0.9849022}
        inSlope: {x: -0.007851793, y: -0.00000002360607, z: 0.5220125, w: -0.08971378}
        outSlope: {x: -0.007851793, y: -0.00000002360607, z: 0.5220125, w: -0.08971378}
        tangentMode: 0
        weightedMode: 0
        inWeight: {x: 0.33333334, y: 0.33333334, z: 0.33333334, w: 0.33333334}
        outWeight: {x: 0.33333334, y: 0.33333334, z: 0.33333334, w: 0.33333334}
      - serializedVersion: 3
        time: 1.7916667
        value: {x: -0.0025030267, y: 0.00000012535382, z: 0.16640949, w: 0.9860536}
        inSlope: {x: 0.009728584, y: 0.0000000073564985, z: -0.6467892, w: 0.10633918}
        outSlope: {x: 0.009728584, y: 0.0000000073564985, z: -0.6467892, w: 0.10633918}
        tangentMode: 0
        weightedMode: 0
        inWeight: {x: 0.33333334, y: 0.33333334, z: 0.33333334, w: 0.33333334}
        outWeight: {x: 0.33333334, y: 0.33333334, z: 0.33333334, w: 0.33333334}
      - serializedVersion: 3
        time: 1.9583334
        value: {x: -0.00069946126, y: 0.00000012697329, z: 0.046502657, w: 0.99891794}
        inSlope: {x: 0.0057598595, y: -0.00000029908077, z: -0.38293344, w: 0.020542879}
        outSlope: {x: 0.0057598595, y: -0.00000029908077, z: -0.38293344, w: 0.020542879}
        tangentMode: 0
        weightedMode: 0
        inWeight: {x: 0.33333334, y: 0.33333334, z: 0.33333334, w: 0.33333334}
        outWeight: {x: 0.33333334, y: 0.33333334, z: 0.33333334, w: 0.33333334}
      - serializedVersion: 3
        time: 2
        value: {x: -0.00056547485, y: 0.00000010147186, z: 0.037594847, w: 0.9992929}
        inSlope: {x: 0.0032156769, y: -0.00000061203485, z: -0.21378765, w: 0.008999356}
        outSlope: {x: 0.0032156769, y: -0.00000061203485, z: -0.21378765, w: 0.008999356}
        tangentMode: 0
        weightedMode: 0
        inWeight: {x: 0.33333334, y: 0.33333334, z: 0.33333334, w: 0.33333334}
        outWeight: {x: 0.33333334, y: 0.33333334, z: 0.33333334, w: 0.33333334}
      m_PreInfinity: 2
      m_PostInfinity: 2
      m_RotationOrder: 4
    path: Armature.splash/Bone/Bone.001/Bone.002/Bone.003/Bone.004
  - curve:
      serializedVersion: 2
      m_Curve:
      - serializedVersion: 3
        time: 0.083333336
        value: {x: -0.000000009164417, y: 0.0000000066408523, z: -0.028152792, w: 0.9996036}
        inSlope: {x: -1.9866777e-11, y: -2.7402082e-11, z: 0.0029889198, w: 0.000084400184}
        outSlope: {x: -1.9866777e-11, y: -2.7402082e-11, z: 0.0029889198, w: 0.000084400184}
        tangentMode: 0
        weightedMode: 0
        inWeight: {x: 0.33333334, y: 0.33333334, z: 0.33333334, w: 0.33333334}
        outWeight: {x: 0.33333334, y: 0.33333334, z: 0.33333334, w: 0.33333334}
      - serializedVersion: 3
        time: 1.875
        value: {x: -0.000000009457966, y: 0.000000006215652, z: 0.017500173, w: 0.9998469}
        inSlope: {x: 2.1237401e-10, y: 3.2311204e-10, z: -0.03415939, w: 0.00059580774}
        outSlope: {x: 2.1237401e-10, y: 3.2311204e-10, z: -0.03415939, w: 0.00059580774}
        tangentMode: 0
        weightedMode: 0
        inWeight: {x: 0.33333334, y: 0.33333334, z: 0.33333334, w: 0.33333334}
        outWeight: {x: 0.33333334, y: 0.33333334, z: 0.33333334, w: 0.33333334}
      - serializedVersion: 3
        time: 3.0833335
        value: {x: -0.000000009164417, y: 0.0000000066408523, z: -0.028152792, w: 0.9996036}
        inSlope: {x: 1.779906e-11, y: 2.4545652e-11, z: -0.0026777782, w: -0.00007581696}
        outSlope: {x: 1.779906e-11, y: 2.4545652e-11, z: -0.0026777782, w: -0.00007581696}
        tangentMode: 0
        weightedMode: 0
        inWeight: {x: 0.33333334, y: 0.33333334, z: 0.33333334, w: 0.33333334}
        outWeight: {x: 0.33333334, y: 0.33333334, z: 0.33333334, w: 0.33333334}
      m_PreInfinity: 2
      m_PostInfinity: 2
      m_RotationOrder: 4
    path: Armature.splash/Bone.007/Bone.008
  - curve:
      serializedVersion: 2
      m_Curve:
      - serializedVersion: 3
        time: 0.083333336
        value: {x: -0.0000000078440365, y: -0.000000041122618, z: 0.0033745142, w: 0.99999434}
        inSlope: {x: 3.1976558e-10, y: -6.0964574e-11, z: 0.0077758753, w: -0.00002717972}
        outSlope: {x: 3.1976558e-10, y: -6.0964574e-11, z: 0.0077758753, w: -0.00002717972}
        tangentMode: 0
        weightedMode: 0
        inWeight: {x: 0.33333334, y: 0.33333334, z: 0.33333334, w: 0.33333334}
        outWeight: {x: 0.33333334, y: 0.33333334, z: 0.33333334, w: 0.33333334}
      - serializedVersion: 3
        time: 1.25
        value: {x: -0.000000002812532, y: -0.000000041769468, z: 0.12430233, w: 0.9922444}
        inSlope: {x: 0.0000000037086558, y: -2.504662e-10, z: 0.08810347, w: -0.011019225}
        outSlope: {x: 0.0000000037086558, y: -2.504662e-10, z: 0.08810347, w: -0.011019225}
        tangentMode: 0
        weightedMode: 0
        inWeight: {x: 0.33333334, y: 0.33333334, z: 0.33333334, w: 0.33333334}
        outWeight: {x: 0.33333334, y: 0.33333334, z: 0.33333334, w: 0.33333334}
      - serializedVersion: 3
        time: 2.5833335
        value: {x: -0.000000006465498, y: -0.00000004136177, z: 0.03678854, w: 0.99932307}
        inSlope: {x: -0.0000000047689204, y: 7.4491946e-10, z: -0.11521712, w: 0.004254344}
        outSlope: {x: -0.0000000047689204, y: 7.4491946e-10, z: -0.11521712, w: 0.004254344}
        tangentMode: 0
        weightedMode: 0
        inWeight: {x: 0.33333334, y: 0.33333334, z: 0.33333334, w: 0.33333334}
        outWeight: {x: 0.33333334, y: 0.33333334, z: 0.33333334, w: 0.33333334}
      - serializedVersion: 3
        time: 3.0833335
        value: {x: -0.0000000078440365, y: -0.000000041122618, z: 0.0033745142, w: 0.99999434}
        inSlope: {x: -2.8644764e-10, y: 5.4654843e-11, z: -0.006965622, w: 0.00002431865}
        outSlope: {x: -2.8644764e-10, y: 5.4654843e-11, z: -0.006965622, w: 0.00002431865}
        tangentMode: 0
        weightedMode: 0
        inWeight: {x: 0.33333334, y: 0.33333334, z: 0.33333334, w: 0.33333334}
        outWeight: {x: 0.33333334, y: 0.33333334, z: 0.33333334, w: 0.33333334}
      m_PreInfinity: 2
      m_PostInfinity: 2
      m_RotationOrder: 4
    path: Armature.splash/Bone.010/Bone.011
  - curve:
      serializedVersion: 2
      m_Curve:
      - serializedVersion: 3
        time: 0.041666668
        value: {x: -0.0000003280777, y: -0.00000055536105, z: 0.1010679, w: 0.99487954}
        inSlope: {x: -0.000023815213, y: -0.000038448652, z: 0.008056998, w: -0.0008196831}
        outSlope: {x: -0.000023815213, y: -0.000038448652, z: 0.008056998, w: -0.0008196831}
        tangentMode: 0
        weightedMode: 0
        inWeight: {x: 0.33333334, y: 0.33333334, z: 0.33333334, w: 0.33333334}
        outWeight: {x: 0.33333334, y: 0.33333334, z: 0.33333334, w: 0.33333334}
      - serializedVersion: 3
        time: 1.9166667
        value: {x: -0.00013414306, y: -0.00021659398, z: 0.14623483, w: 0.9892499}
        inSlope: {x: 0.00011265291, y: 0.00018187254, z: -0.03793572, w: 0.005605457}
        outSlope: {x: 0.00011265291, y: 0.00018187254, z: -0.03793572, w: 0.005605457}
        tangentMode: 0
        weightedMode: 0
        inWeight: {x: 0.33333334, y: 0.33333334, z: 0.33333334, w: 0.33333334}
        outWeight: {x: 0.33333334, y: 0.33333334, z: 0.33333334, w: 0.33333334}
      - serializedVersion: 3
        time: 3.0416667
        value: {x: -0.00000032807486, y: -0.0000005553591, z: 0.1010679, w: 0.99487954}
        inSlope: {x: 0.000023815594, y: 0.000038449245, z: -0.008056982, w: 0.0008196815}
        outSlope: {x: 0.000023815594, y: 0.000038449245, z: -0.008056982, w: 0.0008196815}
        tangentMode: 0
        weightedMode: 0
        inWeight: {x: 0.33333334, y: 0.33333334, z: 0.33333334, w: 0.33333334}
        outWeight: {x: 0.33333334, y: 0.33333334, z: 0.33333334, w: 0.33333334}
      m_PreInfinity: 2
      m_PostInfinity: 2
      m_RotationOrder: 4
    path: Armature.splash/Bone.013/Bone.014
  - curve:
      serializedVersion: 2
      m_Curve:
      - serializedVersion: 3
        time: 0
        value: {x: 0.000000034202483, y: -0.0000008877923, z: 0.033046357, w: 0.99945384}
        inSlope: {x: -0.000020985191, y: -0.00000069714133, z: 0.0037625134, w: -0.0001244545}
        outSlope: {x: -0.000020985191, y: -0.00000069714133, z: 0.0037625134, w: -0.0001244545}
        tangentMode: 0
        weightedMode: 0
        inWeight: {x: 0.33333334, y: 0.33333334, z: 0.33333334, w: 0.33333334}
        outWeight: {x: 0.33333334, y: 0.33333334, z: 0.33333334, w: 0.33333334}
      - serializedVersion: 3
        time: 1.8333334
        value: {x: -0.00036776104, y: -0.000029617067, z: 0.09900677, w: 0.9950867}
        inSlope: {x: 0.00024138927, y: 0.000019905903, z: -0.0432554, w: 0.004299406}
        outSlope: {x: 0.00024138927, y: 0.000019905903, z: -0.0432554, w: 0.004299406}
        tangentMode: 0
        weightedMode: 0
        inWeight: {x: 0.33333334, y: 0.33333334, z: 0.33333334, w: 0.33333334}
        outWeight: {x: 0.33333334, y: 0.33333334, z: 0.33333334, w: 0.33333334}
      - serializedVersion: 3
        time: 3.0833335
        value: {x: 0.000000010230813, y: -0.00000016279321, z: 0.033046357, w: 0.99945384}
        inSlope: {x: 0.000020986088, y: 0.0000006971704, z: -0.0037625956, w: 0.00012445427}
        outSlope: {x: 0.000020986088, y: 0.0000006971704, z: -0.0037625956, w: 0.00012445427}
        tangentMode: 0
        weightedMode: 0
        inWeight: {x: 0.33333334, y: 0.33333334, z: 0.33333334, w: 0.33333334}
        outWeight: {x: 0.33333334, y: 0.33333334, z: 0.33333334, w: 0.33333334}
      m_PreInfinity: 2
      m_PostInfinity: 2
      m_RotationOrder: 4
    path: Armature.splash/Bone.016/Bone.017
  m_CompressedRotationCurves: []
  m_EulerCurves: []
  m_PositionCurves: []
  m_ScaleCurves: []
  m_FloatCurves: []
  m_PPtrCurves: []
  m_SampleRate: 24
  m_WrapMode: 0
  m_Bounds:
    m_Center: {x: 0, y: 0, z: 0}
    m_Extent: {x: 0, y: 0, z: 0}
  m_ClipBindingConstant:
    genericBindings:
    - serializedVersion: 2
      path: 2487467305
      attribute: 2
      script: {fileID: 0}
      typeID: 4
      customType: 0
      isPPtrCurve: 0
    - serializedVersion: 2
      path: 3303671219
      attribute: 2
      script: {fileID: 0}
      typeID: 4
      customType: 0
      isPPtrCurve: 0
    - serializedVersion: 2
      path: 1956551933
      attribute: 2
      script: {fileID: 0}
      typeID: 4
      customType: 0
      isPPtrCurve: 0
    - serializedVersion: 2
      path: 923521441
      attribute: 2
      script: {fileID: 0}
      typeID: 4
      customType: 0
      isPPtrCurve: 0
    - serializedVersion: 2
      path: 2891357741
      attribute: 2
      script: {fileID: 0}
      typeID: 4
      customType: 0
      isPPtrCurve: 0
    - serializedVersion: 2
      path: 3547727059
      attribute: 2
      script: {fileID: 0}
      typeID: 4
      customType: 0
      isPPtrCurve: 0
    pptrCurveMapping: []
  m_AnimationClipSettings:
    serializedVersion: 2
    m_AdditiveReferencePoseClip: {fileID: 0}
    m_AdditiveReferencePoseTime: 0
    m_StartTime: 0
    m_StopTime: 3.0833333
    m_OrientationOffsetY: 0
    m_Level: 0
    m_CycleOffset: 0
    m_HasAdditiveReferencePose: 0
    m_LoopTime: 1
    m_LoopBlend: 0
    m_LoopBlendOrientation: 0
    m_LoopBlendPositionY: 0
    m_LoopBlendPositionXZ: 0
    m_KeepOriginalOrientation: 0
    m_KeepOriginalPositionY: 1
    m_KeepOriginalPositionXZ: 0
    m_HeightFromFeet: 0
    m_Mirror: 0
  m_EditorCurves: []
  m_EulerEditorCurves: []
  m_HasGenericRootTransform: 0
  m_HasMotionFloatCurves: 0
  m_Events: []
